<svg xmlns="http://www.w3.org/2000/svg" width="50" height="50" viewBox="0 0 50 50">
  <g id="Grupo_21" data-name="Grupo 21" transform="translate(0.395 0.116)">
    <g id="Elipse_48" data-name="Elipse 48" transform="translate(-0.395 -0.116)" fill="none" stroke="#009865" stroke-width="2">
      <circle cx="25" cy="25" r="25" stroke="none"/>
      <circle cx="25" cy="25" r="24" fill="none"/>
    </g>
    <path id="Caminho_59" data-name="Caminho 59" d="M-11002.636,1223.676l10.905,10.906-10.905,10.906" transform="translate(11023.504 -1210.108)" fill="none" stroke="#009865" stroke-linecap="round" stroke-linejoin="round" stroke-width="2"/>
  </g>
</svg>
