<svg xmlns="http://www.w3.org/2000/svg" width="27.24" height="19.458" viewBox="0 0 27.24 19.458">
  <g id="close-envelope" transform="translate(0 -2)">
    <g id="Grupo_43" data-name="Grupo 43" transform="translate(0 2)">
      <path id="Caminho_68" data-name="Caminho 68" d="M13.321,10.434l-3.37-2.95L.316,15.744a1.972,1.972,0,0,0,1.345.527H24.982a1.958,1.958,0,0,0,1.339-.527l-9.629-8.26Z" transform="translate(0.299 3.186)" fill="#01cefd"/>
      <path id="Caminho_69" data-name="Caminho 69" d="M26.325,2.527A1.96,1.96,0,0,0,24.98,2H1.659a1.952,1.952,0,0,0-1.341.531l13,11.143Z" transform="translate(0.301 -2)" fill="#01cefd"/>
      <path id="Caminho_70" data-name="Caminho 70" d="M0,2.878V19.043l9.4-7.991Z" transform="translate(0 -1.17)" fill="#01cefd"/>
      <path id="Caminho_71" data-name="Caminho 71" d="M9.167,11.055l9.4,7.991V2.875Z" transform="translate(8.67 -1.172)" fill="#01cefd"/>
    </g>
  </g>
</svg>
