<svg xmlns="http://www.w3.org/2000/svg" width="64.814" height="34.442" viewBox="0 0 64.814 34.442">
  <path id="map-ac" d="M57.4,154.957l-24.689-12.73L2.932,133.2,0,135.669l7.792,12.653-1.7,4.012,8.718,4.012L27.467,152.8l.231,12.73H44.44l2.546-3.935,2.469,1.466,11.882-6.018Z" transform="translate(1.303 -132.086)" fill="none" stroke="#fff" stroke-width="2"/>
</svg>
