<svg xmlns="http://www.w3.org/2000/svg" width="66.908" height="57.657" viewBox="0 0 66.908 57.657">
  <path id="map-rs" d="M233.157,358.427l-7.947-1.157-10.647-9.181L200.521,346.7l-16.9,9.876L170.2,373.241l6.481-1.234,6.481,8.718,3.086-2.546,14.659,8.873,5.246,6.789-4.089,2.855.309,5.015,7.33-3.935,4.475-10.416,12.885-9.49,6.172-12.807L231,364.291Z" transform="translate(-167.715 -345.673)" fill="none" stroke="#fff" stroke-width="2"/>
</svg>
