<svg xmlns="http://www.w3.org/2000/svg" width="57.657" height="36.447" viewBox="0 0 57.657 36.447">
  <path id="map-pr" d="M250.332,316.4l-6.712-1.08L240.457,301.2h-8.333l-4.4-2.7H213.145l-9.1,12.344L200.8,322.88h5.864l2.623,6.4,18.98,3.163-1.852-1.852,6.635-3.78,8.564,2.546,1.929-2.546,5.324.463,6.481-6.712-5.092-1.775Z" transform="translate(-199.495 -297.5)" fill="none" stroke="#fff" stroke-width="2"/>
</svg>
